src/ADC_DAC/ADC_LTC2313_12/vcd/icarus_tb.vcd
$date
	Thu May 10 13:20:57 2018
$end
$version
	Icarus Verilog
$end
$timescale
	1ns
$end
$scope module ICARUS_TB $end
$var wire 16 ! value_mov_avg [15:0] $end
$var wire 16 " value_avg [15:0] $end
$var wire 16 # value [15:0] $end
$var wire 1 $ latch_dac $end
$var wire 1 % conv_adc_avg $end
$var wire 1 & conv_adc $end
$var wire 1 ' clk_adc_avg $end
$var wire 1 ( clk_adc $end
$var reg 1 ) clk $end
$var reg 1 * latch $end
$var reg 1 + sdi_adc $end
$scope module adc_ltc2313_12 $end
$var wire 1 ) CLK $end
$var wire 1 * LATCH $end
$var wire 1 + SDI_ADC $end
$var wire 1 , clk_adc_fe $end
$var wire 1 - clk_adc_re $end
$var wire 1 . latch_start $end
$var reg 1 ( CLK_ADC $end
$var reg 1 & CONV_ADC $end
$var reg 16 / VALUE [15:0] $end
$var reg 12 0 ctr_clk_cs [11:0] $end
$var reg 16 1 ctr_clk_spi [15:0] $end
$var reg 1 2 hri1 $end
$var reg 1 3 hri2 $end
$var reg 1 4 hri3 $end
$var reg 1 5 hri4 $end
$var reg 12 6 index [11:0] $end
$var reg 5 7 state [4:0] $end
$var reg 12 8 value_temp [11:0] $end
$upscope $end
$scope module adc_ltc2313_mov_avg $end
$var wire 1 ) CLK $end
$var wire 1 * LATCH $end
$var wire 1 + SDI_ADC $end
$var wire 1 9 latch_adc $end
$var wire 1 : latch_conv_re $end
$var wire 1 ; latch_start $end
$var wire 16 < VALUE [15:0] $end
$var wire 1 % CONV_ADC $end
$var wire 1 ' CLK_ADC $end
$var reg 1 $ LATCH_DAC $end
$var reg 16 = VALUE_AVG [15:0] $end
$var reg 11 > ctr_mov_avg [10:0] $end
$var reg 12 ? ctr_sample [11:0] $end
$var reg 1 @ hri1 $end
$var reg 1 A hri2 $end
$var reg 1 B hri3 $end
$var reg 1 C hri4 $end
$var reg 16 D state [15:0] $end
$var reg 32 E summe_mov_avg [31:0] $end
$var reg 32 F value_adc_1 [31:0] $end
$var reg 32 G value_adc_2 [31:0] $end
$var reg 32 H value_adc_3 [31:0] $end
$var reg 32 I value_adc_4 [31:0] $end
$var reg 32 J value_temp [31:0] $end
$scope module adc_ltc2313_12 $end
$var wire 1 ) CLK $end
$var wire 1 9 LATCH $end
$var wire 1 + SDI_ADC $end
$var wire 1 K clk_adc_fe $end
$var wire 1 L clk_adc_re $end
$var wire 1 M latch_start $end
$var reg 1 ' CLK_ADC $end
$var reg 1 % CONV_ADC $end
$var reg 16 N VALUE [15:0] $end
$var reg 12 O ctr_clk_cs [11:0] $end
$var reg 16 P ctr_clk_spi [15:0] $end
$var reg 1 Q hri1 $end
$var reg 1 R hri2 $end
$var reg 1 S hri3 $end
$var reg 1 T hri4 $end
$var reg 12 U index [11:0] $end
$var reg 5 V state [4:0] $end
$var reg 12 W value_temp [11:0] $end
$upscope $end
$upscope $end
$upscope $end
$enddefinitions $end
#0
$dumpvars
b0 W
b0 V
b1100 U
0T
0S
0R
xQ
b1 P
b1 O
b0 N
xM
0L
0K
b0 J
b0 I
b0 H
b0 G
b0 F
b0 E
b0 D
xC
1B
xA
0@
b0 ?
b1 >
b0 =
b0 <
0;
x:
09
b0 8
b0 7
b1100 6
05
04
03
02
b1 1
b1 0
b0 /
0.
0-
0,
0+
0*
1)
0(
0'
1&
1%
0$
b0 #
b0 "
b0 !
$end
#5
0)
#10
0:
0M
1C
0A
xR
0Q
1)
#15
0)
#20
0R
1)
#25
0)
#30
1)
#35
0)
#40
1)
#45
0)
#50
19
1;
1.
1@
12
1)
1*
#55
0)
#60
0.
1M
09
0;
b1 7
13
1Q
1A
1)
#65
0)
#70
0M
b1 V
1R
0Q
b10 1
1)
#75
0)
#80
b11 1
b10 P
0R
1)
#85
0)
#90
b11 P
b100 1
1)
#95
0)
#100
b101 1
02
b100 P
0@
1)
0*
#105
0)
#110
0A
b101 P
b110 1
03
1)
#115
0)
#120
b111 1
b110 P
1)
#125
0)
#130
b111 P
b1000 1
1)
#135
0)
#140
b1001 1
b1000 P
1)
#145
0)
#150
b1001 P
b1010 1
1)
#155
0)
#160
b1011 1
b1010 P
1)
#165
0)
#170
b1011 P
b1100 1
1)
#175
0)
#180
b1101 1
b1100 P
1)
#185
0)
#190
b1101 P
b1110 1
1)
#195
0)
#200
b1111 1
b1110 P
1)
#205
0)
#210
b1111 P
b10000 1
1)
#215
0)
#220
b10001 1
b10000 P
1)
#225
0)
#230
b10001 P
b10010 1
1)
#235
0)
#240
b10011 1
b10010 P
1)
#245
0)
#250
b10011 P
b10100 1
1)
#255
0)
#260
b10101 1
b10100 P
1)
#265
0)
#270
b10101 P
b10110 1
1)
#275
0)
#280
b10111 1
b10110 P
1)
#285
0)
#290
b10111 P
b11000 1
1)
#295
0)
#300
b11001 1
b11000 P
1)
#305
0)
#310
b11001 P
b11010 1
1)
#315
0)
#320
b11011 1
b11010 P
1)
#325
0)
#330
b11011 P
b11100 1
1)
#335
0)
#340
b11101 1
b11100 P
1)
#345
0)
#350
b11101 P
b11110 1
1)
#355
0)
#360
b10 7
b0 1
b11110 P
1)
#365
0)
#370
b10 V
b0 P
b1 1
0&
1)
1+
#375
0)
#380
b10 1
b10 0
b1 P
0%
1)
#385
0)
#390
0B
b10 P
b10 O
b11 1
b11 0
1)
#395
0)
#400
b100 1
b100 0
b11 P
b11 O
0C
1)
#405
0)
#410
b100 P
b100 O
1(
b1 1
b101 0
1)
#415
0)
#420
1-
b10 1
b110 0
14
1'
b1 P
b101 O
1)
#425
0)
#430
1L
0-
b10 P
b110 O
1S
b100000000000 8
b11 1
b111 0
15
1)
#435
0)
#440
0L
b100 1
b1000 0
b100000000000 W
b11 P
b111 O
1T
1)
#445
0)
#450
b100 P
b1000 O
0(
b1 1
b1001 0
1)
0+
#455
0)
#460
1,
b10 1
b1010 0
04
0'
b1 P
b1001 O
1)
#465
0)
#470
1K
0,
b10 P
b1010 O
0S
b1011 6
b11 1
b1011 0
05
1)
#475
0)
#480
0K
b100 1
b1100 0
b1011 U
b11 P
b1011 O
0T
1)
#485
0)
#490
b100 P
b1100 O
1(
b1 1
b1101 0
1)
#495
0)
#500
1-
b10 1
b1110 0
14
1'
b1 P
b1101 O
1)
#505
0)
#510
1L
0-
b10 P
b1110 O
1S
b11 1
b1111 0
15
1)
#515
0)
#520
0L
b100 1
b10000 0
b11 P
b1111 O
1T
1)
#525
0)
#530
b100 P
b10000 O
0(
b1 1
b10001 0
1)
#535
0)
#540
1,
b10 1
b10010 0
04
0'
b1 P
b10001 O
1)
#545
0)
#550
1K
0,
b10 P
b10010 O
0S
b1010 6
b11 1
b10011 0
05
1)
#555
0)
#560
0K
b100 1
b10100 0
b1010 U
b11 P
b10011 O
0T
1)
#565
0)
#570
b100 P
b10100 O
1(
b1 1
b10101 0
1)
#575
0)
#580
1-
b10 1
b10110 0
14
1'
b1 P
b10101 O
1)
#585
0)
#590
1L
0-
b10 P
b10110 O
1S
b11 1
b10111 0
15
1)
#595
0)
#600
0L
b100 1
b11000 0
b11 P
b10111 O
1T
1)
#605
0)
#610
b100 P
b11000 O
0(
b1 1
b11001 0
1)
#615
0)
#620
1,
b10 1
b11010 0
04
0'
b1 P
b11001 O
1)
#625
0)
#630
1K
0,
b10 P
b11010 O
0S
b1001 6
b11 1
b11011 0
05
1)
#635
0)
#640
0K
b100 1
b11100 0
b1001 U
b11 P
b11011 O
0T
1)
#645
0)
#650
b100 P
b11100 O
1(
b1 1
b11101 0
1)
#655
0)
#660
1-
b10 1
b11110 0
14
1'
b1 P
b11101 O
1)
#665
0)
#670
1L
0-
b10 P
b11110 O
1S
b11 1
b11111 0
15
1)
#675
0)
#680
0L
b100 1
b100000 0
b11 P
b11111 O
1T
1)
#685
0)
#690
b100 P
b100000 O
0(
b1 1
b100001 0
1)
#695
0)
#700
1,
b10 1
b100010 0
04
0'
b1 P
b100001 O
1)
#705
0)
#710
1K
0,
b10 P
b100010 O
0S
b1000 6
b11 1
b100011 0
05
1)
#715
0)
#720
0K
b100 1
b100100 0
b1000 U
b11 P
b100011 O
0T
1)
#725
0)
#730
b100 P
b100100 O
1(
b1 1
b100101 0
1)
#735
0)
#740
1-
b10 1
b100110 0
14
1'
b1 P
b100101 O
1)
#745
0)
#750
1L
0-
b10 P
b100110 O
1S
b11 1
b100111 0
15
1)
#755
0)
#760
0L
b100 1
b101000 0
b11 P
b100111 O
1T
1)
#765
0)
#770
b100 P
b101000 O
0(
b1 1
b101001 0
1)
#775
0)
#780
1,
b10 1
b101010 0
04
0'
b1 P
b101001 O
1)
#785
0)
#790
1K
0,
b10 P
b101010 O
0S
b111 6
b11 1
b101011 0
05
1)
#795
0)
#800
0K
b100 1
b101100 0
b111 U
b11 P
b101011 O
0T
1)
#805
0)
#810
b100 P
b101100 O
1(
b1 1
b101101 0
1)
#815
0)
#820
1-
b10 1
b101110 0
14
1'
b1 P
b101101 O
1)
#825
0)
#830
1L
0-
b10 P
b101110 O
1S
b11 1
b101111 0
15
1)
#835
0)
#840
0L
b100 1
b110000 0
b11 P
b101111 O
1T
1)
#845
0)
#850
b100 P
b110000 O
0(
b1 1
b110001 0
1)
#855
0)
#860
1,
b10 1
b110010 0
04
0'
b1 P
b110001 O
1)
#865
0)
#870
1K
0,
b10 P
b110010 O
0S
b110 6
b11 1
b110011 0
05
1)
#875
0)
#880
0K
b100 1
b110100 0
b110 U
b11 P
b110011 O
0T
1)
#885
0)
#890
b100 P
b110100 O
1(
b1 1
b110101 0
1)
#895
0)
#900
1-
b10 1
b110110 0
14
1'
b1 P
b110101 O
1)
#905
0)
#910
1L
0-
b10 P
b110110 O
1S
b11 1
b110111 0
15
1)
#915
0)
#920
0L
b100 1
b111000 0
b11 P
b110111 O
1T
1)
#925
0)
#930
b100 P
b111000 O
0(
b1 1
b111001 0
1)
#935
0)
#940
1,
b10 1
b111010 0
04
0'
b1 P
b111001 O
1)
#945
0)
#950
1K
0,
b10 P
b111010 O
0S
b101 6
b11 1
b111011 0
05
1)
#955
0)
#960
0K
b100 1
b111100 0
b101 U
b11 P
b111011 O
0T
1)
#965
0)
#970
b100 P
b111100 O
1(
b1 1
b111101 0
1)
#975
0)
#980
1-
b10 1
b111110 0
14
1'
b1 P
b111101 O
1)
#985
0)
#990
1L
0-
b10 P
b111110 O
1S
b11 1
b111111 0
15
1)
#995
0)
#1000
0L
b100 1
b1000000 0
b11 P
b111111 O
1T
1)
#1005
0)
#1010
b100 P
b1000000 O
0(
b1 1
b1000001 0
1)
#1015
0)
#1020
1,
b10 1
b1000010 0
04
0'
b1 P
b1000001 O
1)
#1025
0)
#1030
1K
0,
b10 P
b1000010 O
0S
b100 6
b11 1
b1000011 0
05
1)
#1035
0)
#1040
0K
b100 1
b1000100 0
b100 U
b11 P
b1000011 O
0T
1)
#1045
0)
#1050
b100 P
b1000100 O
1(
b1 1
b1000101 0
1)
#1055
0)
#1060
1-
b10 1
b1000110 0
14
1'
b1 P
b1000101 O
1)
#1065
0)
#1070
1L
0-
b10 P
b1000110 O
1S
b11 1
b1000111 0
15
1)
#1075
0)
#1080
0L
b100 1
b1001000 0
b11 P
b1000111 O
1T
1)
#1085
0)
#1090
b100 P
b1001000 O
0(
b1 1
b1001001 0
1)
#1095
0)
#1100
1,
b10 1
b1001010 0
04
0'
b1 P
b1001001 O
1)
#1105
0)
#1110
1K
0,
b10 P
b1001010 O
0S
b11 6
b11 1
b1001011 0
05
1)
#1115
0)
#1120
0K
b100 1
b1001100 0
b11 U
b11 P
b1001011 O
0T
1)
#1125
0)
#1130
b100 P
b1001100 O
1(
b1 1
b1001101 0
1)
#1135
0)
#1140
1-
b10 1
b1001110 0
14
1'
b1 P
b1001101 O
1)
#1145
0)
#1150
1L
0-
b10 P
b1001110 O
1S
b11 1
b1001111 0
15
1)
#1155
0)
#1160
0L
b100 1
b1010000 0
b11 P
b1001111 O
1T
1)
#1165
0)
#1170
b100 P
b1010000 O
0(
b1 1
b1010001 0
1)
#1175
0)
#1180
1,
b10 1
b1010010 0
04
0'
b1 P
b1010001 O
1)
#1185
0)
#1190
1K
0,
b10 P
b1010010 O
0S
b10 6
b11 1
b1010011 0
05
1)
#1195
0)
#1200
0K
b100 1
b1010100 0
b10 U
b11 P
b1010011 O
0T
1)
#1205
0)
#1210
b100 P
b1010100 O
1(
b1 1
b1010101 0
1)
#1215
0)
#1220
1-
b10 1
b1010110 0
14
1'
b1 P
b1010101 O
1)
#1225
0)
#1230
1L
0-
b10 P
b1010110 O
1S
b11 1
b1010111 0
15
1)
#1235
0)
#1240
0L
b100 1
b1011000 0
b11 P
b1010111 O
1T
1)
#1245
0)
#1250
b100 P
b1011000 O
0(
b1 1
b1011001 0
1)
#1255
0)
#1260
1,
b10 1
b1011010 0
04
0'
b1 P
b1011001 O
1)
#1265
0)
#1270
1K
0,
b10 P
b1011010 O
0S
b1 6
b11 1
b1011011 0
05
1)
#1275
0)
#1280
0K
b100 1
b1011100 0
b1 U
b11 P
b1011011 O
0T
1)
#1285
0)
#1290
b100 P
b1011100 O
1(
b1 1
b1011101 0
1)
#1295
0)
#1300
1-
b10 1
b1011110 0
14
1'
b1 P
b1011101 O
1)
#1305
0)
#1310
1L
0-
b10 P
b1011110 O
1S
b11 1
b1011111 0
15
1)
#1315
0)
#1320
0L
b100 1
b1100000 0
b11 P
b1011111 O
1T
1)
#1325
0)
#1330
b100 P
b1100000 O
0(
b1 1
b1100001 0
1)
#1335
0)
#1340
1,
b10 1
b1100010 0
04
0'
b1 P
b1100001 O
1)
#1345
0)
#1350
1K
0,
b10 P
b1100010 O
0S
b0 6
b11 1
b1100011 0
05
1)
#1355
0)
#1360
0K
b11 7
b100 1
b1100100 0
b0 U
b11 P
b1100011 O
0T
1)
#1365
0)
#1370
b11 V
b100 P
b1100100 O
b0 7
b1000000000000 #
b1000000000000 /
b1100101 0
1)
#1375
0)
#1380
b1 1
b0 8
b1100 6
1&
b1100110 0
b0 V
b1000000000000 "
b1000000000000 <
b1000000000000 N
b1100101 O
1)
#1385
0)
#1390
b1 P
b0 W
b1100 U
1%
b1100110 O
b1 0
1)
#1395
0)
#1400
1:
b1 O
1B
1)
#1405
0)
#1410
0:
b1 D
b1000000000000 F
b10 >
1C
1)
#1415
0)
#1420
b10 D
1)
#1425
0)
#1430
b11 D
b1000000000000 E
1)
#1435
0)
#1440
b100 D
1)
#1445
0)
#1450
b101 D
1)
#1455
0)
#1460
b110 D
1)
#1465
0)
#1470
b111 D
b10000000000 J
1)
#1475
0)
#1480
b1000 D
b10000000000 !
b10000000000 =
1)
#1485
0)
#1490
b1001 D
1$
1)
#1495
0)
#1500
b1010 D
1)
#1505
0)
#1510
b1011 D
1)
#1515
0)
#1520
b1100 D
1)
#1525
0)
#1530
b1101 D
1)
#1535
0)
#1540
b1110 D
1)
#1545
0)
#1550
b1111 D
1)
#1555
0)
#1560
b10000 D
1)
#1565
0)
#1570
b10001 D
1)
#1575
0)
#1580
b10010 D
1)
#1585
0)
#1590
b10011 D
0$
1)
